﻿{
  "$schema": "http://schemastore.org/schemas/json/webjob-publish-settings.json",
  "webJobName": "WebJobApplication",
  "startTime": "2016-06-04T00:00:00+05:30",
  "endTime": null,
  "jobRecurrenceFrequency": "Day",
  "interval": 1,
  "runMode": "Scheduled"
}