<?xml version="1.0" encoding="UTF-8" standalone="no"?>
<svg width="25px" height="23px" viewBox="0 0 25 23" version="1.1" xmlns="http://www.w3.org/2000/svg" xmlns:xlink="http://www.w3.org/1999/xlink">
    <!-- Generator: Sketch 3.6.1 (26313) - http://www.bohemiancoding.com/sketch -->
    <title>Cases</title>
    <desc>Created with Sketch.</desc>
    <defs></defs>
    <g id="Page-1" stroke="none" stroke-width="1" fill="none" fill-rule="evenodd">
        <g id="Artboard" transform="translate(-467.000000, -1126.000000)" fill="#0D2240">
            <g id="Cases" transform="translate(467.000000, 1126.000000)">
                <path d="M18.605,22.34 L4.439,22.34 C2.232,22.34 0.439,20.55 0.439,18.34 L0.439,17.17 C0.439,14.97 2.232,13.17 4.439,13.17 L18.605,13.17 C19.158,13.17 19.605,13.62 19.605,14.17 C19.605,14.73 19.158,15.17 18.605,15.17 L4.439,15.17 C3.336,15.17 2.439,16.07 2.439,17.17 L2.439,18.34 C2.439,19.44 3.336,20.34 4.439,20.34 L18.605,20.34 C19.158,20.34 19.605,20.79 19.605,21.34 C19.605,21.89 19.158,22.34 18.605,22.34" id="Fill-648"></path>
                <path d="M6.865,4.05 C6.719,4.05 6.568,4.02 6.428,3.95 C5.932,3.71 5.725,3.11 5.967,2.61 C6.643,1.23 8.021,0.36 9.564,0.36 L23.98,0.36 C24.533,0.36 24.98,0.81 24.98,1.36 C24.98,1.92 24.533,2.36 23.98,2.36 L9.564,2.36 C8.793,2.36 8.104,2.79 7.766,3.49 C7.592,3.84 7.236,4.05 6.865,4.05" id="Fill-649"></path>
                <path d="M1.793,16.74 C1.668,16.74 1.543,16.72 1.42,16.67 C0.908,16.46 0.658,15.88 0.865,15.37 L5.99,2.6 C6.193,2.08 6.777,1.83 7.289,2.04 C7.803,2.25 8.051,2.83 7.846,3.34 L2.721,16.11 C2.564,16.5 2.189,16.74 1.793,16.74" id="Fill-650"></path>
                <path d="M18.855,22.36 C18.73,22.36 18.605,22.34 18.482,22.29 C17.971,22.09 17.721,21.5 17.928,20.99 L23.053,8.22 C23.258,7.71 23.84,7.46 24.352,7.67 C24.865,7.87 25.113,8.45 24.908,8.97 L19.783,21.74 C19.627,22.13 19.252,22.36 18.855,22.36" id="Fill-651"></path>
                <path d="M18.605,15.17 C18.477,15.17 18.346,15.15 18.219,15.1 C17.709,14.88 17.471,14.3 17.684,13.79 L23.059,0.98 C23.27,0.47 23.857,0.23 24.367,0.44 C24.877,0.65 25.115,1.24 24.902,1.75 L19.527,14.56 C19.367,14.94 18.996,15.17 18.605,15.17" id="Fill-652"></path>
                <path d="M17.918,17.32 L4.293,17.32 C4.016,17.32 3.793,17.1 3.793,16.82 C3.793,16.54 4.016,16.32 4.293,16.32 L17.918,16.32 C18.193,16.32 18.418,16.54 18.418,16.82 C18.418,17.1 18.193,17.32 17.918,17.32" id="Fill-653"></path>
                <path d="M17.918,19.18 L4.293,19.18 C4.016,19.18 3.793,18.95 3.793,18.68 C3.793,18.4 4.016,18.18 4.293,18.18 L17.918,18.18 C18.193,18.18 18.418,18.4 18.418,18.68 C18.418,18.95 18.193,19.18 17.918,19.18" id="Fill-654"></path>
            </g>
        </g>
    </g>
</svg>