<?xml version="1.0" encoding="UTF-8" standalone="no"?>
<svg width="24px" height="24px" viewBox="0 0 24 24" version="1.1" xmlns="http://www.w3.org/2000/svg" xmlns:xlink="http://www.w3.org/1999/xlink">
    <!-- Generator: Sketch 3.6.1 (26313) - http://www.bohemiancoding.com/sketch -->
    <title>search</title>
    <desc>Created with Sketch.</desc>
    <defs></defs>
    <g id="Page-1" stroke="none" stroke-width="1" fill="none" fill-rule="evenodd">
        <g id="Artboard" transform="translate(-406.000000, -692.000000)" fill="#0D2240">
            <g id="search" transform="translate(406.000000, 692.000000)">
                <path d="M10.814,2.576 C6.422,2.577 2.848,6.153 2.846,10.548 C2.848,14.939 6.42,18.513 10.813,18.513 C15.207,18.513 18.783,14.939 18.783,10.546 C18.781,6.151 15.207,2.576 10.814,2.576 L10.814,2.576 Z M10.813,20.513 C5.318,20.513 0.848,16.042 0.846,10.548 C0.848,5.05 5.318,0.577 10.814,0.576 C16.309,0.576 20.781,5.048 20.783,10.545 C20.783,16.042 16.311,20.513 10.813,20.513 L10.813,20.513 Z" id="Fill-845"></path>
                <path d="M5.207,10.543 L4.207,10.543 C4.209,6.9 7.172,3.937 10.814,3.937 L10.814,4.937 C7.723,4.937 5.209,7.452 5.207,10.543" id="Fill-846"></path>
                <path d="M22.691,23.809 C22.436,23.809 22.18,23.711 21.984,23.516 L16.416,17.948 C16.025,17.558 16.025,16.925 16.416,16.534 C16.807,16.144 17.439,16.144 17.83,16.534 L23.398,22.102 C23.789,22.492 23.789,23.125 23.398,23.516 C23.203,23.711 22.947,23.809 22.691,23.809" id="Fill-847"></path>
            </g>
        </g>
    </g>
</svg>