<?xml version="1.0" encoding="UTF-8" standalone="no"?>
<svg width="26px" height="19px" viewBox="0 0 26 19" version="1.1" xmlns="http://www.w3.org/2000/svg" xmlns:xlink="http://www.w3.org/1999/xlink">
    <!-- Generator: Sketch 3.6.1 (26313) - http://www.bohemiancoding.com/sketch -->
    <title>Group</title>
    <desc>Created with Sketch.</desc>
    <defs></defs>
    <g id="Page-1" stroke="none" stroke-width="1" fill="none" fill-rule="evenodd">
        <g id="Artboard" transform="translate(-834.000000, -1252.000000)" fill="#0D2240">
            <g id="Group" transform="translate(834.000000, 1252.000000)">
                <path d="M12.975,2.06 C11.99,2.06 11.189,3.05 11.189,4.27 C11.189,5.49 11.99,6.48 12.975,6.48 C13.959,6.48 14.758,5.49 14.758,4.27 C14.758,3.05 13.959,2.06 12.975,2.06 L12.975,2.06 Z M12.975,8.48 C10.889,8.48 9.189,6.59 9.189,4.27 C9.189,1.95 10.889,0.06 12.975,0.06 C15.061,0.06 16.758,1.95 16.758,4.27 C16.758,6.59 15.061,8.48 12.975,8.48 L12.975,8.48 Z" id="Fill-265"></path>
                <path d="M8.479,16.26 L17.332,16.26 L17.504,13.74 C17.533,13.31 17.115,12.51 16.477,12.28 C14.191,11.46 11.633,11.46 9.328,12.28 C8.699,12.51 8.279,13.31 8.309,13.74 C8.363,14.57 8.422,15.42 8.479,16.26 L8.479,16.26 Z M18.266,18.26 L7.547,18.26 C7.021,18.26 6.586,17.86 6.549,17.33 C6.467,16.17 6.389,15.01 6.313,13.87 C6.217,12.47 7.264,10.91 8.645,10.4 C11.398,9.41 14.422,9.42 17.158,10.4 C18.551,10.91 19.598,12.47 19.5,13.88 L19.264,17.33 C19.227,17.86 18.791,18.26 18.266,18.26 L18.266,18.26 Z" id="Fill-266"></path>
                <path d="M8.479,16.26 L17.332,16.26 L17.504,13.74 C17.533,13.31 17.115,12.51 16.477,12.28 C14.191,11.46 11.633,11.46 9.328,12.28 C8.699,12.51 8.279,13.31 8.309,13.74 C8.363,14.57 8.422,15.42 8.479,16.26 L8.479,16.26 Z M18.266,18.26 L7.547,18.26 C7.021,18.26 6.586,17.86 6.549,17.33 C6.467,16.17 6.389,15.01 6.313,13.87 C6.217,12.47 7.264,10.91 8.645,10.4 C11.398,9.41 14.422,9.42 17.158,10.4 C18.551,10.91 19.598,12.47 19.5,13.88 L19.264,17.33 C19.227,17.86 18.791,18.26 18.266,18.26 L18.266,18.26 Z" id="Fill-267"></path>
                <path d="M24.75,16.64 L20.482,16.64 C20.205,16.64 19.982,16.42 19.982,16.14 C19.982,15.86 20.205,15.64 20.482,15.64 L24.283,15.64 L24.457,13.12 C24.494,12.57 24.012,11.74 23.332,11.49 C22.361,11.14 21.342,10.96 20.303,10.94 C20.025,10.94 19.807,10.71 19.811,10.43 C19.816,10.16 20.039,9.94 20.311,9.94 L20.32,9.94 C21.469,9.96 22.596,10.17 23.672,10.55 C24.713,10.93 25.527,12.14 25.455,13.19 L25.25,16.17 C25.23,16.44 25.014,16.64 24.75,16.64" id="Fill-268"></path>
                <path d="M21.467,3.85 C20.545,3.85 19.795,4.75 19.795,5.85 C19.795,6.96 20.545,7.86 21.467,7.86 C22.387,7.86 23.135,6.96 23.135,5.85 C23.135,4.75 22.387,3.85 21.467,3.85 L21.467,3.85 Z M21.467,8.86 C19.994,8.86 18.795,7.51 18.795,5.85 C18.795,4.2 19.994,2.85 21.467,2.85 C22.938,2.85 24.135,4.2 24.135,5.85 C24.135,7.51 22.938,8.86 21.467,8.86 L21.467,8.86 Z" id="Fill-269"></path>
                <path d="M5.314,16.64 L1.045,16.64 C0.783,16.64 0.564,16.44 0.547,16.17 L0.342,13.19 C0.27,12.14 1.084,10.93 2.121,10.55 C3.201,10.17 4.328,9.96 5.477,9.94 C5.766,9.98 5.98,10.16 5.986,10.43 C5.99,10.71 5.771,10.94 5.494,10.94 C4.455,10.96 3.436,11.14 2.463,11.49 C1.785,11.74 1.303,12.57 1.34,13.12 L1.512,15.64 L5.314,15.64 C5.592,15.64 5.814,15.86 5.814,16.14 C5.814,16.42 5.592,16.64 5.314,16.64" id="Fill-270"></path>
                <path d="M4.33,3.85 C3.41,3.85 2.662,4.75 2.662,5.85 C2.662,6.96 3.41,7.86 4.33,7.86 C5.252,7.86 6.002,6.96 6.002,5.85 C6.002,4.75 5.252,3.85 4.33,3.85 L4.33,3.85 Z M4.33,8.86 C2.859,8.86 1.662,7.51 1.662,5.85 C1.662,4.2 2.859,2.85 4.33,2.85 C5.803,2.85 7.002,4.2 7.002,5.85 C7.002,7.51 5.803,8.86 4.33,8.86 L4.33,8.86 Z" id="Fill-271"></path>
            </g>
        </g>
    </g>
</svg>